\relax 
\providecommand\hyper@newdestlabel[2]{}
\providecommand\HyperFirstAtBeginDocument{\AtBeginDocument}
\HyperFirstAtBeginDocument{\ifx\hyper@anchor\@undefined
\global\let\oldcontentsline\contentsline
\gdef\contentsline#1#2#3#4{\oldcontentsline{#1}{#2}{#3}}
\global\let\oldnewlabel\newlabel
\gdef\newlabel#1#2{\newlabelxx{#1}#2}
\gdef\newlabelxx#1#2#3#4#5#6{\oldnewlabel{#1}{{#2}{#3}}}
\AtEndDocument{\ifx\hyper@anchor\@undefined
\let\contentsline\oldcontentsline
\let\newlabel\oldnewlabel
\fi}
\fi}
\global\let\hyper@last\relax 
\gdef\HyperFirstAtBeginDocument#1{#1}
\providecommand\HyField@AuxAddToFields[1]{}
\providecommand\HyField@AuxAddToCoFields[2]{}
\@writefile{toc}{\contentsline {chapter}{\numberline {1}Data Structure Index}{1}{chapter.1}}
\@writefile{lof}{\addvspace {10\p@ }}
\@writefile{lot}{\addvspace {10\p@ }}
\@writefile{toc}{\contentsline {section}{\numberline {1.1}Data Structures}{1}{section.1.1}}
\@writefile{toc}{\contentsline {chapter}{\numberline {2}File Index}{3}{chapter.2}}
\@writefile{lof}{\addvspace {10\p@ }}
\@writefile{lot}{\addvspace {10\p@ }}
\@writefile{toc}{\contentsline {section}{\numberline {2.1}File List}{3}{section.2.1}}
\@writefile{toc}{\contentsline {chapter}{\numberline {3}Data Structure Documentation}{5}{chapter.3}}
\@writefile{lof}{\addvspace {10\p@ }}
\@writefile{lot}{\addvspace {10\p@ }}
\@writefile{toc}{\contentsline {section}{\numberline {3.1}Free\discretionary {-}{}{}I\discretionary {-}{}{}M\discretionary {-}{}{}U Class Reference}{5}{section.3.1}}
\newlabel{classFreeIMU}{{3.1}{5}{Free\-I\-M\-U Class Reference}{section.3.1}{}}
\@writefile{toc}{\contentsline {subsection}{\numberline {3.1.1}Constructor \& Destructor Documentation}{5}{subsection.3.1.1}}
\@writefile{toc}{\contentsline {subsubsection}{\numberline {3.1.1.1}Free\discretionary {-}{}{}I\discretionary {-}{}{}M\discretionary {-}{}{}U}{5}{subsubsection.3.1.1.1}}
\newlabel{classFreeIMU_a185003bc29552ca92d26818974ecdd44}{{3.1.1.1}{5}{Free\-I\-M\-U}{subsubsection.3.1.1.1}{}}
\@writefile{toc}{\contentsline {subsection}{\numberline {3.1.2}Member Function Documentation}{5}{subsection.3.1.2}}
\@writefile{toc}{\contentsline {subsubsection}{\numberline {3.1.2.1}get\discretionary {-}{}{}Euler}{5}{subsubsection.3.1.2.1}}
\newlabel{classFreeIMU_adb4f824c9dcc816e9480e6f9b9e2b4d5}{{3.1.2.1}{5}{get\-Euler}{subsubsection.3.1.2.1}{}}
\gdef \LT@i {\LT@entry 
    {1}{78.18367pt}\LT@entry 
    {1}{380.5249pt}}
\gdef \LT@ii {\LT@entry 
    {1}{78.18367pt}\LT@entry 
    {1}{380.5249pt}}
\gdef \LT@iii {\LT@entry 
    {1}{78.18367pt}\LT@entry 
    {1}{380.5249pt}}
\gdef \LT@iv {\LT@entry 
    {1}{78.18367pt}\LT@entry 
    {1}{380.5249pt}}
\gdef \LT@v {\LT@entry 
    {1}{78.18367pt}\LT@entry 
    {1}{380.5249pt}}
\@writefile{toc}{\contentsline {subsubsection}{\numberline {3.1.2.2}get\discretionary {-}{}{}Euler\discretionary {-}{}{}Rad}{6}{subsubsection.3.1.2.2}}
\newlabel{classFreeIMU_ad983cd9107481f382600dcbc64c063b6}{{3.1.2.2}{6}{get\-Euler\-Rad}{subsubsection.3.1.2.2}{}}
\@writefile{toc}{\contentsline {subsubsection}{\numberline {3.1.2.3}get\discretionary {-}{}{}Q}{6}{subsubsection.3.1.2.3}}
\newlabel{classFreeIMU_a9e6c9c29fd3218c48ae5085fcab85d28}{{3.1.2.3}{6}{get\-Q}{subsubsection.3.1.2.3}{}}
\@writefile{toc}{\contentsline {subsubsection}{\numberline {3.1.2.4}get\discretionary {-}{}{}Raw\discretionary {-}{}{}Values}{6}{subsubsection.3.1.2.4}}
\newlabel{classFreeIMU_aabe8509df00112add146cd4586052357}{{3.1.2.4}{6}{get\-Raw\-Values}{subsubsection.3.1.2.4}{}}
\@writefile{toc}{\contentsline {subsubsection}{\numberline {3.1.2.5}get\discretionary {-}{}{}Values}{6}{subsubsection.3.1.2.5}}
\newlabel{classFreeIMU_a0e907d7b71daac30eae359a9862a82cc}{{3.1.2.5}{6}{get\-Values}{subsubsection.3.1.2.5}{}}
\@writefile{toc}{\contentsline {subsubsection}{\numberline {3.1.2.6}get\discretionary {-}{}{}Yaw\discretionary {-}{}{}Pitch\discretionary {-}{}{}Roll}{6}{subsubsection.3.1.2.6}}
\newlabel{classFreeIMU_acf0833c0ad1367de460dcbbe434468ff}{{3.1.2.6}{6}{get\-Yaw\-Pitch\-Roll}{subsubsection.3.1.2.6}{}}
\@writefile{toc}{\contentsline {subsubsection}{\numberline {3.1.2.7}get\discretionary {-}{}{}Yaw\discretionary {-}{}{}Pitch\discretionary {-}{}{}Roll\discretionary {-}{}{}Rad}{6}{subsubsection.3.1.2.7}}
\newlabel{classFreeIMU_afba87b9bd2b20628ea920bbab319bfc3}{{3.1.2.7}{6}{get\-Yaw\-Pitch\-Roll\-Rad}{subsubsection.3.1.2.7}{}}
\@writefile{toc}{\contentsline {subsubsection}{\numberline {3.1.2.8}init}{7}{subsubsection.3.1.2.8}}
\newlabel{classFreeIMU_ad1e754f18d487fe4a96a1b06785f48e6}{{3.1.2.8}{7}{init}{subsubsection.3.1.2.8}{}}
\@writefile{toc}{\contentsline {subsubsection}{\numberline {3.1.2.9}init}{7}{subsubsection.3.1.2.9}}
\newlabel{classFreeIMU_ae425675f021e7b51fd6b585b5a1d45c1}{{3.1.2.9}{7}{init}{subsubsection.3.1.2.9}{}}
\@writefile{toc}{\contentsline {subsubsection}{\numberline {3.1.2.10}init}{7}{subsubsection.3.1.2.10}}
\newlabel{classFreeIMU_a2c01b69cc66a7cee2a173c40ffb498dc}{{3.1.2.10}{7}{init}{subsubsection.3.1.2.10}{}}
\@writefile{toc}{\contentsline {subsection}{\numberline {3.1.3}Field Documentation}{7}{subsection.3.1.3}}
\@writefile{toc}{\contentsline {subsubsection}{\numberline {3.1.3.1}acc}{7}{subsubsection.3.1.3.1}}
\newlabel{classFreeIMU_ade36ccbb22a704d64910125a0384694c}{{3.1.3.1}{7}{acc}{subsubsection.3.1.3.1}{}}
\@writefile{toc}{\contentsline {subsubsection}{\numberline {3.1.3.2}baro}{7}{subsubsection.3.1.3.2}}
\newlabel{classFreeIMU_ab9538cb3bd99da32d79c69f041d4f42f}{{3.1.3.2}{7}{baro}{subsubsection.3.1.3.2}{}}
\@writefile{toc}{\contentsline {subsubsection}{\numberline {3.1.3.3}gyro}{7}{subsubsection.3.1.3.3}}
\newlabel{classFreeIMU_a2422a26293b645b2d4e3c0f80eb1c80b}{{3.1.3.3}{7}{gyro}{subsubsection.3.1.3.3}{}}
\@writefile{toc}{\contentsline {subsubsection}{\numberline {3.1.3.4}magn}{7}{subsubsection.3.1.3.4}}
\newlabel{classFreeIMU_adb282f340688d9589a1cf6011d46b749}{{3.1.3.4}{7}{magn}{subsubsection.3.1.3.4}{}}
\@writefile{toc}{\contentsline {subsubsection}{\numberline {3.1.3.5}raw\discretionary {-}{}{}\_\discretionary {-}{}{}acc}{7}{subsubsection.3.1.3.5}}
\newlabel{classFreeIMU_a03e39edc065347b17276c15b522b122b}{{3.1.3.5}{7}{raw\-\_\-acc}{subsubsection.3.1.3.5}{}}
\@writefile{toc}{\contentsline {subsubsection}{\numberline {3.1.3.6}raw\discretionary {-}{}{}\_\discretionary {-}{}{}gyro}{7}{subsubsection.3.1.3.6}}
\newlabel{classFreeIMU_a6d668123b8df4b76458e71c871c6078b}{{3.1.3.6}{7}{raw\-\_\-gyro}{subsubsection.3.1.3.6}{}}
\@writefile{toc}{\contentsline {subsubsection}{\numberline {3.1.3.7}raw\discretionary {-}{}{}\_\discretionary {-}{}{}magn}{7}{subsubsection.3.1.3.7}}
\newlabel{classFreeIMU_a8d115cb256ff28f33635fa58bf75589d}{{3.1.3.7}{7}{raw\-\_\-magn}{subsubsection.3.1.3.7}{}}
\@writefile{toc}{\contentsline {chapter}{\numberline {4}File Documentation}{9}{chapter.4}}
\@writefile{lof}{\addvspace {10\p@ }}
\@writefile{lot}{\addvspace {10\p@ }}
\@writefile{toc}{\contentsline {section}{\numberline {4.1}Communication\discretionary {-}{}{}Utils.\discretionary {-}{}{}cpp File Reference}{9}{section.4.1}}
\newlabel{CommunicationUtils_8cpp}{{4.1}{9}{Communication\-Utils.\-cpp File Reference}{section.4.1}{}}
\@writefile{toc}{\contentsline {subsection}{\numberline {4.1.1}Function Documentation}{9}{subsection.4.1.1}}
\@writefile{toc}{\contentsline {subsubsection}{\numberline {4.1.1.1}serial\discretionary {-}{}{}Float\discretionary {-}{}{}Print}{9}{subsubsection.4.1.1.1}}
\newlabel{CommunicationUtils_8cpp_a443fb70b5dfe2023992cec53792aa77e}{{4.1.1.1}{9}{serial\-Float\-Print}{subsubsection.4.1.1.1}{}}
\@writefile{toc}{\contentsline {subsubsection}{\numberline {4.1.1.2}serial\discretionary {-}{}{}Print\discretionary {-}{}{}Float\discretionary {-}{}{}Arr}{9}{subsubsection.4.1.1.2}}
\newlabel{CommunicationUtils_8cpp_ac255bc45ca336cd7cc89d2b85463c5d0}{{4.1.1.2}{9}{serial\-Print\-Float\-Arr}{subsubsection.4.1.1.2}{}}
\@writefile{toc}{\contentsline {subsubsection}{\numberline {4.1.1.3}write\discretionary {-}{}{}Arr}{9}{subsubsection.4.1.1.3}}
\newlabel{CommunicationUtils_8cpp_a72b0db31227aff8bd5295dabc8531319}{{4.1.1.3}{9}{write\-Arr}{subsubsection.4.1.1.3}{}}
\@writefile{toc}{\contentsline {subsubsection}{\numberline {4.1.1.4}write\discretionary {-}{}{}Var}{9}{subsubsection.4.1.1.4}}
\newlabel{CommunicationUtils_8cpp_abaaae209c6c360cf4be597792cda862a}{{4.1.1.4}{9}{write\-Var}{subsubsection.4.1.1.4}{}}
\@writefile{toc}{\contentsline {section}{\numberline {4.2}Communication\discretionary {-}{}{}Utils.\discretionary {-}{}{}h File Reference}{9}{section.4.2}}
\newlabel{CommunicationUtils_8h}{{4.2}{9}{Communication\-Utils.\-h File Reference}{section.4.2}{}}
\@writefile{toc}{\contentsline {subsection}{\numberline {4.2.1}Function Documentation}{10}{subsection.4.2.1}}
\@writefile{toc}{\contentsline {subsubsection}{\numberline {4.2.1.1}serial\discretionary {-}{}{}Float\discretionary {-}{}{}Print}{10}{subsubsection.4.2.1.1}}
\newlabel{CommunicationUtils_8h_a443fb70b5dfe2023992cec53792aa77e}{{4.2.1.1}{10}{serial\-Float\-Print}{subsubsection.4.2.1.1}{}}
\@writefile{toc}{\contentsline {subsubsection}{\numberline {4.2.1.2}serial\discretionary {-}{}{}Print\discretionary {-}{}{}Float\discretionary {-}{}{}Arr}{10}{subsubsection.4.2.1.2}}
\newlabel{CommunicationUtils_8h_ac255bc45ca336cd7cc89d2b85463c5d0}{{4.2.1.2}{10}{serial\-Print\-Float\-Arr}{subsubsection.4.2.1.2}{}}
\@writefile{toc}{\contentsline {subsubsection}{\numberline {4.2.1.3}write\discretionary {-}{}{}Arr}{10}{subsubsection.4.2.1.3}}
\newlabel{CommunicationUtils_8h_a62ed15091664b2a0e7442db401ac6a79}{{4.2.1.3}{10}{write\-Arr}{subsubsection.4.2.1.3}{}}
\@writefile{toc}{\contentsline {subsubsection}{\numberline {4.2.1.4}write\discretionary {-}{}{}Var}{10}{subsubsection.4.2.1.4}}
\newlabel{CommunicationUtils_8h_abaaae209c6c360cf4be597792cda862a}{{4.2.1.4}{10}{write\-Var}{subsubsection.4.2.1.4}{}}
\@writefile{toc}{\contentsline {section}{\numberline {4.3}Free\discretionary {-}{}{}I\discretionary {-}{}{}M\discretionary {-}{}{}U.\discretionary {-}{}{}cpp File Reference}{10}{section.4.3}}
\newlabel{FreeIMU_8cpp}{{4.3}{10}{Free\-I\-M\-U.\-cpp File Reference}{section.4.3}{}}
\@writefile{toc}{\contentsline {subsection}{\numberline {4.3.1}Function Documentation}{10}{subsection.4.3.1}}
\@writefile{toc}{\contentsline {subsubsection}{\numberline {4.3.1.1}arr3\discretionary {-}{}{}\_\discretionary {-}{}{}rad\discretionary {-}{}{}\_\discretionary {-}{}{}to\discretionary {-}{}{}\_\discretionary {-}{}{}deg}{10}{subsubsection.4.3.1.1}}
\newlabel{FreeIMU_8cpp_a08bed004143f76faac1926ab769bb190}{{4.3.1.1}{10}{arr3\-\_\-rad\-\_\-to\-\_\-deg}{subsubsection.4.3.1.1}{}}
\@writefile{toc}{\contentsline {subsubsection}{\numberline {4.3.1.2}inv\discretionary {-}{}{}Sqrt}{10}{subsubsection.4.3.1.2}}
\newlabel{FreeIMU_8cpp_ae275609337974b29c58aae13d82bf3a9}{{4.3.1.2}{10}{inv\-Sqrt}{subsubsection.4.3.1.2}{}}
\@writefile{toc}{\contentsline {section}{\numberline {4.4}Free\discretionary {-}{}{}I\discretionary {-}{}{}M\discretionary {-}{}{}U.\discretionary {-}{}{}h File Reference}{10}{section.4.4}}
\newlabel{FreeIMU_8h}{{4.4}{10}{Free\-I\-M\-U.\-h File Reference}{section.4.4}{}}
\@writefile{toc}{\contentsline {subsection}{\numberline {4.4.1}Macro Definition Documentation}{11}{subsection.4.4.1}}
\@writefile{toc}{\contentsline {subsubsection}{\numberline {4.4.1.1}cbi}{11}{subsubsection.4.4.1.1}}
\newlabel{FreeIMU_8h_ae70baf5399951da1e7ad45a0ed890832}{{4.4.1.1}{11}{cbi}{subsubsection.4.4.1.1}{}}
\@writefile{toc}{\contentsline {subsubsection}{\numberline {4.4.1.2}F\discretionary {-}{}{}I\discretionary {-}{}{}M\discretionary {-}{}{}U\discretionary {-}{}{}\_\discretionary {-}{}{}\discretionary {-}{}{}A\discretionary {-}{}{}C\discretionary {-}{}{}C\discretionary {-}{}{}\_\discretionary {-}{}{}\discretionary {-}{}{}A\discretionary {-}{}{}D\discretionary {-}{}{}D\discretionary {-}{}{}R}{11}{subsubsection.4.4.1.2}}
\newlabel{FreeIMU_8h_aa529db26a520cecfd1b1becf5e13b713}{{4.4.1.2}{11}{F\-I\-M\-U\-\_\-\-A\-C\-C\-\_\-\-A\-D\-D\-R}{subsubsection.4.4.1.2}{}}
\@writefile{toc}{\contentsline {subsubsection}{\numberline {4.4.1.3}F\discretionary {-}{}{}I\discretionary {-}{}{}M\discretionary {-}{}{}U\discretionary {-}{}{}\_\discretionary {-}{}{}\discretionary {-}{}{}B\discretionary {-}{}{}A\discretionary {-}{}{}R\discretionary {-}{}{}O\discretionary {-}{}{}\_\discretionary {-}{}{}\discretionary {-}{}{}A\discretionary {-}{}{}D\discretionary {-}{}{}D\discretionary {-}{}{}R}{11}{subsubsection.4.4.1.3}}
\newlabel{FreeIMU_8h_a4a4d9e6755a7ccb9faaf197d681e915e}{{4.4.1.3}{11}{F\-I\-M\-U\-\_\-\-B\-A\-R\-O\-\_\-\-A\-D\-D\-R}{subsubsection.4.4.1.3}{}}
\@writefile{toc}{\contentsline {subsubsection}{\numberline {4.4.1.4}F\discretionary {-}{}{}I\discretionary {-}{}{}M\discretionary {-}{}{}U\discretionary {-}{}{}\_\discretionary {-}{}{}\discretionary {-}{}{}B\discretionary {-}{}{}M\discretionary {-}{}{}A180\discretionary {-}{}{}\_\discretionary {-}{}{}\discretionary {-}{}{}D\discretionary {-}{}{}E\discretionary {-}{}{}F\discretionary {-}{}{}\_\discretionary {-}{}{}\discretionary {-}{}{}A\discretionary {-}{}{}D\discretionary {-}{}{}D\discretionary {-}{}{}R}{11}{subsubsection.4.4.1.4}}
\newlabel{FreeIMU_8h_a4f34cea639b3e654e741705ac06d21b6}{{4.4.1.4}{11}{F\-I\-M\-U\-\_\-\-B\-M\-A180\-\_\-\-D\-E\-F\-\_\-\-A\-D\-D\-R}{subsubsection.4.4.1.4}{}}
\@writefile{toc}{\contentsline {subsubsection}{\numberline {4.4.1.5}F\discretionary {-}{}{}I\discretionary {-}{}{}M\discretionary {-}{}{}U\discretionary {-}{}{}\_\discretionary {-}{}{}\discretionary {-}{}{}I\discretionary {-}{}{}T\discretionary {-}{}{}G3200\discretionary {-}{}{}\_\discretionary {-}{}{}\discretionary {-}{}{}D\discretionary {-}{}{}E\discretionary {-}{}{}F\discretionary {-}{}{}\_\discretionary {-}{}{}\discretionary {-}{}{}A\discretionary {-}{}{}D\discretionary {-}{}{}D\discretionary {-}{}{}R}{11}{subsubsection.4.4.1.5}}
\newlabel{FreeIMU_8h_a5ed7a1e5b097595abe9e64b2a7b6332f}{{4.4.1.5}{11}{F\-I\-M\-U\-\_\-\-I\-T\-G3200\-\_\-\-D\-E\-F\-\_\-\-A\-D\-D\-R}{subsubsection.4.4.1.5}{}}
\@writefile{toc}{\contentsline {subsubsection}{\numberline {4.4.1.6}F\discretionary {-}{}{}R\discretionary {-}{}{}E\discretionary {-}{}{}E\discretionary {-}{}{}I\discretionary {-}{}{}M\discretionary {-}{}{}U\discretionary {-}{}{}\_\discretionary {-}{}{}v04}{11}{subsubsection.4.4.1.6}}
\newlabel{FreeIMU_8h_a9ebab22a3abe6b50facca587a9a01471}{{4.4.1.6}{11}{F\-R\-E\-E\-I\-M\-U\-\_\-v04}{subsubsection.4.4.1.6}{}}
\@writefile{toc}{\contentsline {subsubsection}{\numberline {4.4.1.7}H\discretionary {-}{}{}A\discretionary {-}{}{}S\discretionary {-}{}{}\_\discretionary {-}{}{}\discretionary {-}{}{}A\discretionary {-}{}{}D\discretionary {-}{}{}X\discretionary {-}{}{}L345}{11}{subsubsection.4.4.1.7}}
\newlabel{FreeIMU_8h_a4602a35c717bf8d5e5cebfe8eb455cdc}{{4.4.1.7}{11}{H\-A\-S\-\_\-\-A\-D\-X\-L345}{subsubsection.4.4.1.7}{}}
\@writefile{toc}{\contentsline {subsubsection}{\numberline {4.4.1.8}H\discretionary {-}{}{}A\discretionary {-}{}{}S\discretionary {-}{}{}\_\discretionary {-}{}{}\discretionary {-}{}{}A\discretionary {-}{}{}X\discretionary {-}{}{}I\discretionary {-}{}{}S\discretionary {-}{}{}\_\discretionary {-}{}{}\discretionary {-}{}{}A\discretionary {-}{}{}L\discretionary {-}{}{}I\discretionary {-}{}{}G\discretionary {-}{}{}N\discretionary {-}{}{}E\discretionary {-}{}{}D}{11}{subsubsection.4.4.1.8}}
\newlabel{FreeIMU_8h_ada7234e5623d0512411a6939f3c0349a}{{4.4.1.8}{11}{H\-A\-S\-\_\-\-A\-X\-I\-S\-\_\-\-A\-L\-I\-G\-N\-E\-D}{subsubsection.4.4.1.8}{}}
\@writefile{toc}{\contentsline {subsubsection}{\numberline {4.4.1.9}H\discretionary {-}{}{}A\discretionary {-}{}{}S\discretionary {-}{}{}\_\discretionary {-}{}{}\discretionary {-}{}{}B\discretionary {-}{}{}M\discretionary {-}{}{}A180}{12}{subsubsection.4.4.1.9}}
\newlabel{FreeIMU_8h_a61ca52deec40bb14906e36ab58112517}{{4.4.1.9}{12}{H\-A\-S\-\_\-\-B\-M\-A180}{subsubsection.4.4.1.9}{}}
\@writefile{toc}{\contentsline {subsubsection}{\numberline {4.4.1.10}H\discretionary {-}{}{}A\discretionary {-}{}{}S\discretionary {-}{}{}\_\discretionary {-}{}{}\discretionary {-}{}{}H\discretionary {-}{}{}M\discretionary {-}{}{}C5883\discretionary {-}{}{}L}{12}{subsubsection.4.4.1.10}}
\newlabel{FreeIMU_8h_a66b9d7daabfc80f90de551525a701539}{{4.4.1.10}{12}{H\-A\-S\-\_\-\-H\-M\-C5883\-L}{subsubsection.4.4.1.10}{}}
\@writefile{toc}{\contentsline {subsubsection}{\numberline {4.4.1.11}H\discretionary {-}{}{}A\discretionary {-}{}{}S\discretionary {-}{}{}\_\discretionary {-}{}{}\discretionary {-}{}{}I\discretionary {-}{}{}T\discretionary {-}{}{}G3200}{12}{subsubsection.4.4.1.11}}
\newlabel{FreeIMU_8h_a8721f083fbfe14a2ee9d3cc6a0570944}{{4.4.1.11}{12}{H\-A\-S\-\_\-\-I\-T\-G3200}{subsubsection.4.4.1.11}{}}
\@writefile{toc}{\contentsline {subsubsection}{\numberline {4.4.1.12}H\discretionary {-}{}{}A\discretionary {-}{}{}S\discretionary {-}{}{}\_\discretionary {-}{}{}\discretionary {-}{}{}M\discretionary {-}{}{}P\discretionary {-}{}{}U6050}{12}{subsubsection.4.4.1.12}}
\newlabel{FreeIMU_8h_a1850ff26e359c75d0569629eb1fa3466}{{4.4.1.12}{12}{H\-A\-S\-\_\-\-M\-P\-U6050}{subsubsection.4.4.1.12}{}}
\@writefile{toc}{\contentsline {subsubsection}{\numberline {4.4.1.13}H\discretionary {-}{}{}A\discretionary {-}{}{}S\discretionary {-}{}{}\_\discretionary {-}{}{}\discretionary {-}{}{}M\discretionary {-}{}{}S5611}{12}{subsubsection.4.4.1.13}}
\newlabel{FreeIMU_8h_a396474faaa476425c2639aaacd974d70}{{4.4.1.13}{12}{H\-A\-S\-\_\-\-M\-S5611}{subsubsection.4.4.1.13}{}}
\@writefile{toc}{\contentsline {subsubsection}{\numberline {4.4.1.14}I\discretionary {-}{}{}S\discretionary {-}{}{}\_\discretionary {-}{}{}6\discretionary {-}{}{}D\discretionary {-}{}{}O\discretionary {-}{}{}M}{12}{subsubsection.4.4.1.14}}
\newlabel{FreeIMU_8h_a095538a7cfef8adf44dbe94c29868a1c}{{4.4.1.14}{12}{I\-S\-\_\-6\-D\-O\-M}{subsubsection.4.4.1.14}{}}
\@writefile{toc}{\contentsline {subsubsection}{\numberline {4.4.1.15}I\discretionary {-}{}{}S\discretionary {-}{}{}\_\discretionary {-}{}{}9\discretionary {-}{}{}D\discretionary {-}{}{}O\discretionary {-}{}{}M}{12}{subsubsection.4.4.1.15}}
\newlabel{FreeIMU_8h_a487f99a8f9cc3374374f499d18869cf8}{{4.4.1.15}{12}{I\-S\-\_\-9\-D\-O\-M}{subsubsection.4.4.1.15}{}}
\@writefile{toc}{\contentsline {subsubsection}{\numberline {4.4.1.16}two\discretionary {-}{}{}Ki\discretionary {-}{}{}Def}{12}{subsubsection.4.4.1.16}}
\newlabel{FreeIMU_8h_a0a61e034822b9a9851cdf6ac026053cd}{{4.4.1.16}{12}{two\-Ki\-Def}{subsubsection.4.4.1.16}{}}
\@writefile{toc}{\contentsline {subsubsection}{\numberline {4.4.1.17}two\discretionary {-}{}{}Kp\discretionary {-}{}{}Def}{12}{subsubsection.4.4.1.17}}
\newlabel{FreeIMU_8h_ada29b0bd3e62d46e44776cb20f9a46df}{{4.4.1.17}{12}{two\-Kp\-Def}{subsubsection.4.4.1.17}{}}
\@writefile{toc}{\contentsline {subsection}{\numberline {4.4.2}Function Documentation}{12}{subsection.4.4.2}}
\@writefile{toc}{\contentsline {subsubsection}{\numberline {4.4.2.1}arr3\discretionary {-}{}{}\_\discretionary {-}{}{}rad\discretionary {-}{}{}\_\discretionary {-}{}{}to\discretionary {-}{}{}\_\discretionary {-}{}{}deg}{12}{subsubsection.4.4.2.1}}
\newlabel{FreeIMU_8h_a08bed004143f76faac1926ab769bb190}{{4.4.2.1}{12}{arr3\-\_\-rad\-\_\-to\-\_\-deg}{subsubsection.4.4.2.1}{}}
\@writefile{toc}{\contentsline {subsubsection}{\numberline {4.4.2.2}inv\discretionary {-}{}{}Sqrt}{12}{subsubsection.4.4.2.2}}
\newlabel{FreeIMU_8h_ae275609337974b29c58aae13d82bf3a9}{{4.4.2.2}{12}{inv\-Sqrt}{subsubsection.4.4.2.2}{}}
